…
$bXv
# A tibble: 50 × 3
      branch_ order_    vertex_
        <chr>  <int>      <chr>
1  DLElZPXgSz      1 9EEkUCFmoK
2  DLElZPXgSz      2 JecN5LIG9F
3  DLElZPXgSz      3 guZrKZeRRC
4  DLElZPXgSz      4 EdWz8r0f2D
5  DLElZPXgSz      5 9EEkUCFmoK
6  YOWIGWbDTQ      1 AIO8ooXZh7
7  YOWIGWbDTQ      2 MIuCFlGern
8  YOWIGWbDTQ      3 QLoqTCkUg1
9  YOWIGWbDTQ      4 BI5onAu1kE
10 YOWIGWbDTQ      5 AIO8ooXZh7
# ... with 40 more rows

$v
# A tibble: 27 × 3
      x_    y_    vertex_
   <dbl> <dbl>      <chr>
1      0     0 9EEkUCFmoK
2      0    19 JecN5LIG9F
3     46    19 guZrKZeRRC
4     46     0 EdWz8r0f2D
5      7     6 AIO8ooXZh7
6     13     6 MIuCFlGern
7     13    13 QLoqTCkUg1
8      7    13 BI5onAu1kE
9     18     1 r3BW2zduSu
10    24     1 V5DLEgpEx5
# ... with 17 more rows
…
